{
  "stats": {
    "suites": 1,
    "tests": 1,
    "passes": 0,
    "pending": 0,
    "failures": 1,
    "start": "2020-11-16T12:59:35.864Z",
    "end": "2020-11-16T12:59:36.290Z",
    "duration": 426,
    "testsRegistered": 1,
    "passPercent": 0,
    "pendingPercent": 0,
    "other": 0,
    "hasOther": false,
    "skipped": 0,
    "hasSkipped": false
  },
  "results": [
    {
      "uuid": "4cc19a09-a260-4c9b-b17b-de0688e23a1d",
      "title": "",
      "fullFile": "cypress\\integration\\rogerFeatures\\eu_incomingCalls.feature",
      "file": "cypress\\integration\\rogerFeatures\\eu_incomingCalls.feature",
      "beforeHooks": [],
      "afterHooks": [],
      "tests": [],
      "suites": [
        {
          "uuid": "4fabe780-e1ad-43c1-9a27-216bb2aa80e6",
          "title": "incomming call settings on end user level",
          "fullFile": "",
          "file": "",
          "beforeHooks": [],
          "afterHooks": [],
          "tests": [
            {
              "title": "add a new contact with illegal chars in the name fields",
              "fullTitle": "incomming call settings on end user level add a new contact with illegal chars in the name fields",
              "timedOut": null,
              "duration": 386,
              "state": "failed",
              "speed": null,
              "pass": false,
              "fail": true,
              "pending": false,
              "context": null,
              "code": "const state = window.testState;\nreturn cy\n  .then(() => state.onStartScenario(scenario, indexedSteps))\n  .then(() =>\n    resolveAndRunBeforeHooks.call(this, scenario.tags, state.feature.name)\n  )\n  .then(() =>\n    indexedSteps.forEach(step =>\n      stepTest.call(this, state, step, rowData)\n    )\n  )\n  .then(() =>\n    resolveAndRunAfterHooks.call(this, scenario.tags, state.feature.name)\n  )\n  .then(() => state.onFinishScenario(scenario));",
              "err": {
                "message": "Error: Step implementation missing for: I am on the end user incoming call page",
                "estack": "Error: Step implementation missing for: I am on the end user incoming call page\n    at Context.resolveAndRunStepDefinition (https://staging-master.d28d2dts1jxk6.amplifyapp.com/__cypress/tests?p=cypress\\integration\\rogerFeatures\\eu_incomingCalls.feature:10443:11)\n    at Context.eval (https://staging-master.d28d2dts1jxk6.amplifyapp.com/__cypress/tests?p=cypress\\integration\\rogerFeatures\\eu_incomingCalls.feature:9782:35)",
                "diff": null
              },
              "uuid": "bea7c57c-0e5d-4ecf-af06-1d125af2de5c",
              "parentUUID": "4fabe780-e1ad-43c1-9a27-216bb2aa80e6",
              "isHook": false,
              "skipped": false
            }
          ],
          "suites": [],
          "passes": [],
          "failures": [
            "bea7c57c-0e5d-4ecf-af06-1d125af2de5c"
          ],
          "pending": [],
          "skipped": [],
          "duration": 386,
          "root": false,
          "rootEmpty": false,
          "_timeout": 2000
        }
      ],
      "passes": [],
      "failures": [],
      "pending": [],
      "skipped": [],
      "duration": 0,
      "root": true,
      "rootEmpty": true,
      "_timeout": 2000
    }
  ],
  "meta": {
    "mocha": {
      "version": "7.0.1"
    },
    "mochawesome": {
      "options": {
        "quiet": false,
        "reportFilename": "mochawesome",
        "saveHtml": false,
        "saveJson": true,
        "consoleReporter": "spec",
        "useInlineDiffs": false,
        "code": true
      },
      "version": "6.1.1"
    },
    "marge": {
      "options": {
        "id": "default",
        "reportDir": "cypress/reports/mocha",
        "quite": true,
        "overwrite": false,
        "html": false,
        "json": true
      },
      "version": "5.1.0"
    }
  }
}